%YAML 1.1
%TAG !u! tag:unity3d.com,2011:
--- !u!114 &11400000
MonoBehaviour:
  m_ObjectHideFlags: 0
  m_CorrespondingSourceObject: {fileID: 0}
  m_PrefabInstance: {fileID: 0}
  m_PrefabAsset: {fileID: 0}
  m_GameObject: {fileID: 0}
  m_Enabled: 1
  m_EditorHideFlags: 0
  m_Script: {fileID: 11500000, guid: 1a8083cfc6efa3c46821d59f40049695, type: 3}
  m_Name: TRObject_8_7
  m_EditorClassIdentifier: 
  mapObjects:
  - postion: {x: 831.7, y: 164.9, z: 1763.07}
    orientation: {x: 0.0015609564, y: -0.7071051, z: -0.7071051, w: -0.0015609564}
    scale: {x: 0.011436409, y: 0.011436409, z: 0.011436409}
    prefab: {fileID: 157058597, guid: 16c9c5ffb6298b549b9566ecac46c037, type: 3}
