%YAML 1.1
%TAG !u! tag:unity3d.com,2011:
--- !u!114 &11400000
MonoBehaviour:
  m_ObjectHideFlags: 0
  m_CorrespondingSourceObject: {fileID: 0}
  m_PrefabInstance: {fileID: 0}
  m_PrefabAsset: {fileID: 0}
  m_GameObject: {fileID: 0}
  m_Enabled: 1
  m_EditorHideFlags: 0
  m_Script: {fileID: 11500000, guid: 8e6292b2c06870d4495f009f912b9600, type: 3}
  m_Name: Post-process Volume Profile
  m_EditorClassIdentifier: 
  settings:
  - {fileID: 114006556158015782}
  - {fileID: 114329512420802788}
  - {fileID: 114068964940283958}
--- !u!114 &114006556158015782
MonoBehaviour:
  m_ObjectHideFlags: 3
  m_CorrespondingSourceObject: {fileID: 0}
  m_PrefabInstance: {fileID: 0}
  m_PrefabAsset: {fileID: 0}
  m_GameObject: {fileID: 0}
  m_Enabled: 1
  m_EditorHideFlags: 0
  m_Script: {fileID: 11500000, guid: 556797029e73b2347956b6579e77e05b, type: 3}
  m_Name: DepthOfField
  m_EditorClassIdentifier: 
  active: 0
  enabled:
    overrideState: 1
    value: 1
  focusDistance:
    overrideState: 0
    value: 3.24
  aperture:
    overrideState: 0
    value: 5.6
  focalLength:
    overrideState: 0
    value: 56
  kernelSize:
    overrideState: 0
    value: 1
--- !u!114 &114068964940283958
MonoBehaviour:
  m_ObjectHideFlags: 3
  m_CorrespondingSourceObject: {fileID: 0}
  m_PrefabInstance: {fileID: 0}
  m_PrefabAsset: {fileID: 0}
  m_GameObject: {fileID: 0}
  m_Enabled: 1
  m_EditorHideFlags: 0
  m_Script: {fileID: 11500000, guid: c1cb7e9e120078f43bce4f0b1be547a7, type: 3}
  m_Name: AmbientOcclusion
  m_EditorClassIdentifier: 
  active: 1
  enabled:
    overrideState: 1
    value: 1
  mode:
    overrideState: 1
    value: 1
  intensity:
    overrideState: 0
    value: 0
  color:
    overrideState: 0
    value: {r: 0, g: 0, b: 0, a: 1}
  ambientOnly:
    overrideState: 0
    value: 1
  noiseFilterTolerance:
    overrideState: 0
    value: 0
  blurTolerance:
    overrideState: 0
    value: -4.6
  upsampleTolerance:
    overrideState: 0
    value: -12
  thicknessModifier:
    overrideState: 0
    value: 1
  directLightingStrength:
    overrideState: 0
    value: 0
  radius:
    overrideState: 0
    value: 0.25
  quality:
    overrideState: 0
    value: 2
--- !u!114 &114329512420802788
MonoBehaviour:
  m_ObjectHideFlags: 3
  m_CorrespondingSourceObject: {fileID: 0}
  m_PrefabInstance: {fileID: 0}
  m_PrefabAsset: {fileID: 0}
  m_GameObject: {fileID: 0}
  m_Enabled: 1
  m_EditorHideFlags: 0
  m_Script: {fileID: 11500000, guid: b94fcd11afffcb142908bfcb1e261fba, type: 3}
  m_Name: MotionBlur
  m_EditorClassIdentifier: 
  active: 0
  enabled:
    overrideState: 1
    value: 1
  shutterAngle:
    overrideState: 1
    value: 93
  sampleCount:
    overrideState: 1
    value: 4
