%YAML 1.1
%TAG !u! tag:unity3d.com,2011:
--- !u!114 &11400000
MonoBehaviour:
  m_ObjectHideFlags: 0
  m_CorrespondingSourceObject: {fileID: 0}
  m_PrefabInstance: {fileID: 0}
  m_PrefabAsset: {fileID: 0}
  m_GameObject: {fileID: 0}
  m_Enabled: 1
  m_EditorHideFlags: 0
  m_Script: {fileID: 11500000, guid: 780109bde19186d4db8c678f7859556e, type: 3}
  m_Name: ItemList
  m_EditorClassIdentifier: 
  items:
  - id: 1
    nameItem: "\u042F\u0431\u043B\u043E\u043A\u043E"
    texture: {fileID: 2800000, guid: 5d9ba4e7d0964044ea54abe409d81dfd, type: 3}
    description: "\u043F\u043B\u043E\u0434 \u044F\u0431\u043B\u043E\u043D\u0438,\n\u043A\u043E\u0442\u043E\u0440\u044B\u0439
      \u0443\u043F\u043E\u0442\u0440\u0435\u0431\u043B\u044F\u0435\u0442\u0441\u044F\n\u0432
      \u043F\u0438\u0449\u0443 \u0432 \u0441\u0432\u0435\u0436\u0435\u043C \u0432\u0438\u0434\u0435,\n\u0432\u043E\u0441\u0441\u0442\u0430\u043D\u0430\u0432\u043B\u0438\u0432\u0430\u0435\u0442
      \u0425\u041F "
    stack: 1
    prefab: {fileID: 0}
    use: 3
    _serializableObj: '{"hp":500,"stamina":0,"mp":0}'
    type: Items.RestorePointsItem
  - id: 2
    nameItem: "\u041A\u043E\u043B\u044C\u0447\u0443\u0433\u0430"
    texture: {fileID: 2800000, guid: 2f1eaeeaad36ee5469eff7ff158f37ba, type: 3}
    description: 
    stack: 0
    prefab: {fileID: 0}
    use: 0
    _serializableObj: 
    type: 
  - id: 3
    nameItem: "\u041A\u043B\u0435\u0439\u043C\u043E\u0440"
    texture: {fileID: 2800000, guid: 172774604c1bee84185a69041576525b, type: 3}
    description: "\u0422\u0430\u043A\u0438\u043C \u0442\u043E\u043F\u043E\u0440\u043E\u043C\n
      \u043C\u043E\u0436\u043D\u043E \u0432\u0442\u0430\u0449\u0438\u0442\u044C \u043B\u044E\u0431\u043E\u043C\u0443)"
    stack: 0
    prefab: {fileID: 1985893358777052, guid: 025f5b5995d81e04baa62a90bab01c54, type: 3}
    use: 1
    _serializableObj: '{"weaponType":1,"physicalAttack":200,"prickingDamage":50,"crushingDamage":0,"choppingDamage":250,"speed":2.5}'
    type: Items.WeaponItem
  - id: 4
    nameItem: "\u041C\u0435\u0447"
    texture: {fileID: 2800000, guid: 5fd50594014b70e48bd6993443d46b32, type: 3}
    description: "\u041C\u0435\u0447 \u043A\u043B\u0430\u0434\u0435\u043D\u0435\u0446)"
    stack: 0
    prefab: {fileID: 1850576378525214, guid: 0466fcd0fd73ee744851048e6006aa5d, type: 3}
    use: 1
    _serializableObj: '{"weaponType":1,"physicalAttack":300,"prickingDamage":100,"crushingDamage":0,"choppingDamage":200,"speed":1.5}'
    type: Items.WeaponItem
  - id: 5
    nameItem: "\u0420\u0443\u0431\u0430\u043D\u043E\u043A"
    texture: {fileID: 2800000, guid: 84d69569e482d0e48a229a2337da931a, type: 3}
    description: "\u0432\u0438\u0434 \u0445\u043E\u043B\u043E\u0434\u043D\u043E\u0433\u043E\n\u043E\u0440\u0443\u0436\u0438\u044F
      \u0441 \u043F\u0440\u044F\u043C\u044B\u043C \u043A\u043B\u0438\u043D\u043A\u043E\u043C,\n\u043F\u0440\u0435\u0434\u043D\u0430\u0437\u043D\u0430\u0447\u0435\u043D\u043D\u044B\u0439
      \u0434\u043B\u044F \n\u0440\u0443\u0431\u044F\u0449\u0435\u0433\u043E \u0443\u0434\u0430\u0440\u0430
      \u0438\u043B\u0438 \u0440\u0443\u0431\u044F\u0449\u0435\u0433\u043E\n\u0438
      \u043A\u043E\u043B\u044E\u0449\u0435\u0433\u043E \u0443\u0434\u0430\u0440\u043E\u0432"
    stack: 0
    prefab: {fileID: 1672486138402514, guid: de052fac90a293f479a6adec10eee949, type: 3}
    use: 1
    _serializableObj: '{"weaponType":1,"physicalAttack":400,"prickingDamage":50,"crushingDamage":0,"choppingDamage":250,"speed":1.0}'
    type: Items.WeaponItem
