%YAML 1.1
%TAG !u! tag:unity3d.com,2011:
--- !u!114 &11400000
MonoBehaviour:
  m_ObjectHideFlags: 0
  m_CorrespondingSourceObject: {fileID: 0}
  m_PrefabInstance: {fileID: 0}
  m_PrefabAsset: {fileID: 0}
  m_GameObject: {fileID: 0}
  m_Enabled: 1
  m_EditorHideFlags: 0
  m_Script: {fileID: 11500000, guid: 1a8083cfc6efa3c46821d59f40049695, type: 3}
  m_Name: TRObject_0_8
  m_EditorClassIdentifier: 
  mapObjects:
  - postion: {x: 1081.24, y: 184.16304, z: 1899.36}
    orientation: {x: -0, y: -0.7063007, z: -0, w: 0.707912}
    scale: {x: 1, y: 1, z: 1}
    prefab: {fileID: 132396, guid: e6c5642645dc0e94faaa0770d404edb0, type: 3}
  - postion: {x: 1096.5737, y: 183.97, z: 1899.92}
    orientation: {x: 0, y: 0, z: 0, w: 1}
    scale: {x: 1, y: 1, z: 1}
    prefab: {fileID: 114422, guid: ae92636e46fbdcc4dbfd18d4d733ce66, type: 3}
  - postion: {x: 1078.2288, y: 184.04, z: 1882.0328}
    orientation: {x: -0, y: -0.0020070625, z: -0, w: 0.99999803}
    scale: {x: 1.2441, y: 1.2441, z: 1.2441}
    prefab: {fileID: 186808, guid: d9a03bfbfde7932419db0fe506b6a5b3, type: 3}
  - postion: {x: 1094.64, y: 184.04, z: 1882.5}
    orientation: {x: -0, y: -0.6971144, z: -0, w: 0.7169599}
    scale: {x: 1.2441, y: 1.2441, z: 1.2441}
    prefab: {fileID: 186808, guid: d9a03bfbfde7932419db0fe506b6a5b3, type: 3}
  - postion: {x: 1083.2122, y: 183.49174, z: 1854.4601}
    orientation: {x: 0.012026597, y: -0.035906225, z: -0.020258183, w: 0.99907744}
    scale: {x: 1.0608, y: 1.0608, z: 1.0608}
    prefab: {fileID: 123178, guid: ee3001aa7177f384a8e8e400d0a13cdc, type: 3}
  - postion: {x: 1071.9056, y: 184.01443, z: 1854.9983}
    orientation: {x: 0.008373722, y: -0.0069763632, z: -0.047042873, w: 0.9988334}
    scale: {x: 1.0608, y: 1.0608, z: 1.0608}
    prefab: {fileID: 123178, guid: ee3001aa7177f384a8e8e400d0a13cdc, type: 3}
  - postion: {x: 1089.039, y: 183.431, z: 1841.253}
    orientation: {x: 0.03550406, y: 0.70847106, z: 0.015646292, w: 0.70467263}
    scale: {x: 1.0608, y: 1.0608, z: 1.0608}
    prefab: {fileID: 163990, guid: e7e6f7a218212394baab79eb29f02491, type: 3}
  - postion: {x: 1088.575, y: 183.792, z: 1829.789}
    orientation: {x: 0.019529197, y: 0.7334473, z: 0.00045316806, w: 0.67946565}
    scale: {x: 1.0608, y: 1.0608, z: 1.0608}
    prefab: {fileID: 123178, guid: ee3001aa7177f384a8e8e400d0a13cdc, type: 3}
  - postion: {x: 1044.165, y: 181.055, z: 1817.575}
    orientation: {x: -0.024768863, y: -0.7248207, z: 0.0032343352, w: 0.68848455}
    scale: {x: 1.0608, y: 1.0608, z: 1.0608}
    prefab: {fileID: 123178, guid: ee3001aa7177f384a8e8e400d0a13cdc, type: 3}
  - postion: {x: 1064.6367, y: 184.47537, z: 1855.4084}
    orientation: {x: 0.008762199, y: -0.08731352, z: 0.0257036, w: 0.9958107}
    scale: {x: 1.0608, y: 1.0608, z: 1.0608}
    prefab: {fileID: 163990, guid: e7e6f7a218212394baab79eb29f02491, type: 3}
  - postion: {x: 1085.8195, y: 184.519, z: 1816.019}
    orientation: {x: 0.0016145952, y: 0.9999062, z: 0.0135990875, w: 0.00032990635}
    scale: {x: 1.0608, y: 1.0608, z: 1.0608}
    prefab: {fileID: 123178, guid: ee3001aa7177f384a8e8e400d0a13cdc, type: 3}
  - postion: {x: 1043.6378, y: 183.68248, z: 1844.4725}
    orientation: {x: -0.052570693, y: -0.72333604, z: 0.029657336, w: 0.68785304}
    scale: {x: 1.0608, y: 1.0608, z: 1.0608}
    prefab: {fileID: 163990, guid: e7e6f7a218212394baab79eb29f02491, type: 3}
  - postion: {x: 1079.504, y: 183.56221, z: 1854.5916}
    orientation: {x: 0.015053069, y: 0.073163435, z: -0.0067441873, w: 0.99718356}
    scale: {x: 1.0608, y: 1.0608, z: 1.0608}
    prefab: {fileID: 123178, guid: ee3001aa7177f384a8e8e400d0a13cdc, type: 3}
  - postion: {x: 1043.971, y: 181.221, z: 1821.374}
    orientation: {x: -0.023393387, y: -0.7248668, z: 0.0019278382, w: 0.6884891}
    scale: {x: 1.0608, y: 1.0608, z: 1.0608}
    prefab: {fileID: 163990, guid: e7e6f7a218212394baab79eb29f02491, type: 3}
  - postion: {x: 1071.9733, y: 184.03, z: 1896.6881}
    orientation: {x: -0, y: 0.62261814, z: -0, w: 0.7825258}
    scale: {x: 1.431, y: 1.431, z: 1.431}
    prefab: {fileID: 183808, guid: ab7918e9629e24740935b030dc8bc929, type: 3}
  - postion: {x: 1088.351, y: 183.842, z: 1825.781}
    orientation: {x: 0.02457754, y: 0.7089342, z: 0.0047806865, w: 0.70483005}
    scale: {x: 1.0608, y: 1.0608, z: 1.0608}
    prefab: {fileID: 163990, guid: e7e6f7a218212394baab79eb29f02491, type: 3}
  - postion: {x: 1043.8557, y: 184.04105, z: 1852.1147}
    orientation: {x: -0.014393722, y: -0.72510135, z: -0.006618609, w: 0.68846}
    scale: {x: 1.0608, y: 1.0608, z: 1.0608}
    prefab: {fileID: 163990, guid: e7e6f7a218212394baab79eb29f02491, type: 3}
  - postion: {x: 1057.05, y: 184.325, z: 1854.795}
    orientation: {x: 0.013509297, y: -0.01754495, z: -0.02303986, w: 0.9994893}
    scale: {x: 1.0608, y: 1.0608, z: 1.0608}
    prefab: {fileID: 123178, guid: ee3001aa7177f384a8e8e400d0a13cdc, type: 3}
  - postion: {x: 1043.64, y: 184.001, z: 1848.236}
    orientation: {x: -0.010524376, y: -0.68257254, z: -0.007872901, w: 0.73069966}
    scale: {x: 1.0608, y: 1.0608, z: 1.0608}
    prefab: {fileID: 123178, guid: ee3001aa7177f384a8e8e400d0a13cdc, type: 3}
  - postion: {x: 1059.601, y: 182.933, z: 1816.702}
    orientation: {x: -0.12684603, y: 0.99152553, z: 0.009630824, w: 0.026353382}
    scale: {x: 1.0608, y: 1.0608, z: 1.0608}
    prefab: {fileID: 123178, guid: ee3001aa7177f384a8e8e400d0a13cdc, type: 3}
  - postion: {x: 1052.085, y: 181.644, z: 1816.296}
    orientation: {x: -0.047819555, y: 0.9983963, z: 0.011494945, w: 0.028038803}
    scale: {x: 1.0608, y: 1.0608, z: 1.0608}
    prefab: {fileID: 123178, guid: ee3001aa7177f384a8e8e400d0a13cdc, type: 3}
  - postion: {x: 1063.195, y: 183.641, z: 1816.422}
    orientation: {x: -0.055196483, y: 0.9931053, z: 0.021900633, w: -0.101072885}
    scale: {x: 1.0608, y: 1.0608, z: 1.0608}
    prefab: {fileID: 123178, guid: ee3001aa7177f384a8e8e400d0a13cdc, type: 3}
  - postion: {x: 1049.55, y: 184.368, z: 1854.494}
    orientation: {x: 0.013133493, y: -0.0077504716, z: 0.035911784, w: 0.9992386}
    scale: {x: 1.0608, y: 1.0608, z: 1.0608}
    prefab: {fileID: 123178, guid: ee3001aa7177f384a8e8e400d0a13cdc, type: 3}
  - postion: {x: 1074.3926, y: 183.08043, z: 1816.2498}
    orientation: {x: -0.019057173, y: 0.9996572, z: 0.0141369095, w: -0.011063533}
    scale: {x: 1.0608, y: 1.0608, z: 1.0608}
    prefab: {fileID: 123178, guid: ee3001aa7177f384a8e8e400d0a13cdc, type: 3}
  - postion: {x: 1089.31, y: 183.39362, z: 1852.6146}
    orientation: {x: -0.0058826576, y: 0.7093357, z: -0.025485065, w: 0.7043854}
    scale: {x: 1.0608, y: 1.0608, z: 1.0608}
    prefab: {fileID: 123178, guid: ee3001aa7177f384a8e8e400d0a13cdc, type: 3}
  - postion: {x: 1053.228, y: 184.542, z: 1854.697}
    orientation: {x: 0.012611743, y: -0.031025454, z: 0.0034952988, w: 0.9994329}
    scale: {x: 1.0608, y: 1.0608, z: 1.0608}
    prefab: {fileID: 163990, guid: e7e6f7a218212394baab79eb29f02491, type: 3}
  - postion: {x: 1089.021, y: 183.629, z: 1837.377}
    orientation: {x: 0.024493707, y: 0.70893705, z: 0.00469734, w: 0.7048307}
    scale: {x: 1.0608, y: 1.0608, z: 1.0608}
    prefab: {fileID: 123178, guid: ee3001aa7177f384a8e8e400d0a13cdc, type: 3}
  - postion: {x: 1045.638, y: 184.124, z: 1854.386}
    orientation: {x: 0.012085642, y: -0.029814947, z: 0.022799633, w: 0.99922234}
    scale: {x: 1.0608, y: 1.0608, z: 1.0608}
    prefab: {fileID: 123178, guid: ee3001aa7177f384a8e8e400d0a13cdc, type: 3}
  - postion: {x: 1082.136, y: 184.248, z: 1816.128}
    orientation: {x: -0.077622354, y: 0.99665534, z: 0.016116092, w: -0.019829463}
    scale: {x: 1.0608, y: 1.0608, z: 1.0608}
    prefab: {fileID: 123178, guid: ee3001aa7177f384a8e8e400d0a13cdc, type: 3}
  - postion: {x: 1060.838, y: 184.338, z: 1854.999}
    orientation: {x: 0.013330731, y: -0.011690438, z: -0.0046640364, w: 0.999832}
    scale: {x: 1.0608, y: 1.0608, z: 1.0608}
    prefab: {fileID: 123178, guid: ee3001aa7177f384a8e8e400d0a13cdc, type: 3}
  - postion: {x: 1068.238, y: 184.494, z: 1855.29}
    orientation: {x: 0.01418186, y: 0.073337175, z: -0.018603543, w: 0.9970328}
    scale: {x: 1.0608, y: 1.0608, z: 1.0608}
    prefab: {fileID: 123178, guid: ee3001aa7177f384a8e8e400d0a13cdc, type: 3}
  - postion: {x: 1043.6432, y: 183.31384, z: 1840.6473}
    orientation: {x: -0.054304313, y: -0.69847643, z: 0.035695717, w: 0.71267635}
    scale: {x: 1.0608, y: 1.0608, z: 1.0608}
    prefab: {fileID: 123178, guid: ee3001aa7177f384a8e8e400d0a13cdc, type: 3}
  - postion: {x: 1087.716, y: 184.331, z: 1818.149}
    orientation: {x: 0.02726117, y: 0.7088361, z: 0.007448923, w: 0.7048069}
    scale: {x: 1.0608, y: 1.0608, z: 1.0608}
    prefab: {fileID: 163990, guid: e7e6f7a218212394baab79eb29f02491, type: 3}
  - postion: {x: 1066.689, y: 183.687, z: 1816.079}
    orientation: {x: 0.04769803, y: 0.997108, z: 0.014670358, w: 0.057318546}
    scale: {x: 1.0608, y: 1.0608, z: 1.0608}
    prefab: {fileID: 163990, guid: e7e6f7a218212394baab79eb29f02491, type: 3}
  - postion: {x: 1043.8795, y: 181.44073, z: 1825.2069}
    orientation: {x: -0.040017456, y: -0.7180105, z: 0.018549208, w: 0.6946333}
    scale: {x: 1.0608, y: 1.0608, z: 1.0608}
    prefab: {fileID: 123178, guid: ee3001aa7177f384a8e8e400d0a13cdc, type: 3}
  - postion: {x: 1043.788, y: 181.933, z: 1829.156}
    orientation: {x: -0.070785396, y: -0.7217813, z: 0.04698499, w: 0.68688697}
    scale: {x: 1.0608, y: 1.0608, z: 1.0608}
    prefab: {fileID: 163990, guid: e7e6f7a218212394baab79eb29f02491, type: 3}
  - postion: {x: 1088.807, y: 183.733, z: 1833.5945}
    orientation: {x: 0.015229476, y: 0.725746, z: -0.004299693, w: 0.6877809}
    scale: {x: 1.0608, y: 1.0608, z: 1.0608}
    prefab: {fileID: 163990, guid: e7e6f7a218212394baab79eb29f02491, type: 3}
  - postion: {x: 1089.158, y: 183.211, z: 1845.066}
    orientation: {x: 0.02411304, y: 0.71516126, z: 0.0044105556, w: 0.6985295}
    scale: {x: 1.0608, y: 1.0608, z: 1.0608}
    prefab: {fileID: 123178, guid: ee3001aa7177f384a8e8e400d0a13cdc, type: 3}
  - postion: {x: 1089.285, y: 183.27, z: 1848.92}
    orientation: {x: -0.005658324, y: 0.7093374, z: -0.025262287, w: 0.7043935}
    scale: {x: 1.0608, y: 1.0608, z: 1.0608}
    prefab: {fileID: 163990, guid: e7e6f7a218212394baab79eb29f02491, type: 3}
  - postion: {x: 1088.137, y: 184.108, z: 1821.932}
    orientation: {x: 0.02226688, y: 0.7500192, z: 0.0033660175, w: 0.6610326}
    scale: {x: 1.0608, y: 1.0608, z: 1.0608}
    prefab: {fileID: 123178, guid: ee3001aa7177f384a8e8e400d0a13cdc, type: 3}
  - postion: {x: 1055.898, y: 182.121, z: 1816.492}
    orientation: {x: -0.09442162, y: 0.9951604, z: 0.010605829, w: 0.025058614}
    scale: {x: 1.0608, y: 1.0608, z: 1.0608}
    prefab: {fileID: 123178, guid: ee3001aa7177f384a8e8e400d0a13cdc, type: 3}
  - postion: {x: 1070.451, y: 183.248, z: 1816.274}
    orientation: {x: 0.057907674, y: 0.99807036, z: 0.0130576445, w: -0.01821675}
    scale: {x: 1.0608, y: 1.0608, z: 1.0608}
    prefab: {fileID: 123178, guid: ee3001aa7177f384a8e8e400d0a13cdc, type: 3}
  - postion: {x: 1075.7288, y: 183.66838, z: 1854.9475}
    orientation: {x: 0.008953339, y: 0.004629185, z: -0.040327862, w: 0.9991357}
    scale: {x: 1.0608, y: 1.0608, z: 1.0608}
    prefab: {fileID: 123178, guid: ee3001aa7177f384a8e8e400d0a13cdc, type: 3}
  - postion: {x: 1043.6041, y: 182.4856, z: 1832.9407}
    orientation: {x: -0.05417826, y: -0.7232179, z: 0.031186057, w: 0.6877849}
    scale: {x: 1.0608, y: 1.0608, z: 1.0608}
    prefab: {fileID: 123178, guid: ee3001aa7177f384a8e8e400d0a13cdc, type: 3}
  - postion: {x: 1043.615, y: 182.885, z: 1836.8446}
    orientation: {x: -0.042354465, y: -0.70884156, z: 0.0221077, w: 0.70374787}
    scale: {x: 1.0608, y: 1.0608, z: 1.0608}
    prefab: {fileID: 163990, guid: e7e6f7a218212394baab79eb29f02491, type: 3}
  - postion: {x: 1078.399, y: 183.574, z: 1816.136}
    orientation: {x: -0.096901044, y: 0.99520004, z: 0.013319325, w: 0.0031078267}
    scale: {x: 1.0608, y: 1.0608, z: 1.0608}
    prefab: {fileID: 163990, guid: e7e6f7a218212394baab79eb29f02491, type: 3}
